{
  "soccer": [
    {
      "numberOfPlayer": 3,
      "score": 2
    },
    {
      "numberOfPlayer": 5,
      "score": 3
    },
    {
      "numberOfPlayer": 7,
      "score": 4
    },
    {
      "numberOfPlayer": 11,
      "score": 5
    }
  ],
  "basketball": [
    {
      "numberOfPlayer": 3,
      "score": 3
    },
    {
      "numberOfPlayer": 5,
      "score": 4
    }
  ],
  "badminton": [
    {
      "numberOfPlayer": 1,
      "score": 3
    },
    {
      "numberOfPlayer": 2,
      "score": 4
    }
  ]
}